{
  "results": [
    {
      "vote_count": 134,
      "id": 429617,
      "video": false,
      "vote_average": 7.1,
      "title": "Spider-Man: Far from Home",
      "popularity": 367.979,
      "poster_path": "/2cAc4qH9Uh2NtSujJ90fIAMrw7T.jpg",
      "original_language": "en",
      "original_title": "Spider-Man: Far from Home",
      "genre_ids": [
        28,
        12,
        878,
        35,
        10749
      ],
      "backdrop_path": "/dihW2yTsvQlust7mSuAqJDtqW7k.jpg",
      "adult": false,
      "overview": "Peter Parker and his friends go on a summer trip to Europe. However, they will hardly be able to rest - Peter will have to agree to help Nick Fury uncover the mystery of creatures that cause natural disasters and destruction throughout the continent.",
      "release_date": "2019-06-28"
    },
    {
      "vote_count": 814,
      "id": 301528,
      "video": false,
      "vote_average": 7.8,
      "title": "Toy Story 4",
      "popularity": 309.734,
      "poster_path": "/w9kR8qbmQ01HwnvK4alvnQ2ca0L.jpg",
      "original_language": "en",
      "original_title": "Toy Story 4",
      "genre_ids": [
        12,
        16,
        35,
        10751
      ],
      "backdrop_path": "/m67smI1IIMmYzCl9axvKNULVKLr.jpg",
      "adult": false,
      "overview": "Woody has always been confident about his place in the world and that his priority is taking care of his kid, whether that's Andy or Bonnie. But when Bonnie adds a reluctant new toy called \"Forky\" to her room, a road trip adventure alongside old and new friends will show Woody how big the world can be for a toy.",
      "release_date": "2019-06-19"
    },
    {
      "vote_count": 170,
      "id": 486131,
      "video": false,
      "vote_average": 6.1,
      "title": "Shaft",
      "popularity": 150.521,
      "poster_path": "/kfZqwGuvEBAysAbCsa0QLKoSYR.jpg",
      "original_language": "en",
      "original_title": "Shaft",
      "genre_ids": [
        28,
        80,
        35
      ],
      "backdrop_path": "/103d4ObBCWbB6PtOOjZ7C1FSpVl.jpg",
      "adult": false,
      "overview": "JJ, aka John Shaft Jr., may be a cyber security expert with a degree from MIT, but to uncover the truth behind his best friend’s untimely death, he needs an education only his dad can provide. Absent throughout JJ’s youth, the legendary locked-and-loaded John Shaft agrees to help his progeny navigate Harlem’s heroin-infested underbelly.",
      "release_date": "2019-06-14"
    },
    {
      "vote_count": 1064,
      "id": 320288,
      "video": false,
      "vote_average": 6.3,
      "title": "Dark Phoenix",
      "popularity": 144.857,
      "poster_path": "/kZv92eTc0Gg3mKxqjjDAM73z9cy.jpg",
      "original_language": "en",
      "original_title": "Dark Phoenix",
      "genre_ids": [
        878,
        28
      ],
      "backdrop_path": "/phxiKFDvPeQj4AbkvJLmuZEieDU.jpg",
      "adult": false,
      "overview": "The X-Men face their most formidable and powerful foe when one of their own, Jean Grey, starts to spiral out of control. During a rescue mission in outer space, Jean is nearly killed when she's hit by a mysterious cosmic force. Once she returns home, this force not only makes her infinitely more powerful, but far more unstable. The X-Men must now band together to save her soul and battle aliens that want to use Grey's new abilities to rule the galaxy.",
      "release_date": "2019-06-05"
    },
    {
      "vote_count": 98,
      "id": 521029,
      "video": false,
      "vote_average": 6.5,
      "title": "Annabelle Comes Home",
      "popularity": 141.533,
      "poster_path": "/qWsHMrbg9DsBY3bCMk9jyYCRVRs.jpg",
      "original_language": "en",
      "original_title": "Annabelle Comes Home",
      "genre_ids": [
        27
      ],
      "backdrop_path": "/4DHHymlttV0YskaxoWtuIDNDhPl.jpg",
      "adult": false,
      "overview": "Determined to keep Annabelle from wreaking more havoc, demonologists Ed and Lorraine Warren bring the possessed doll to the locked artifacts room in their home, placing her “safely” behind sacred glass and enlisting a priest’s holy blessing. But an unholy night of horror awaits as Annabelle awakens the evil spirits in the room, who all set their sights on a new target—the Warrens' ten-year-old daughter, Judy, and her friends.",
      "release_date": "2019-06-26"
    },
    {
      "vote_count": 1315,
      "id": 458156,
      "video": false,
      "vote_average": 7.1,
      "title": "John Wick: Chapter 3 – Parabellum",
      "popularity": 122.126,
      "poster_path": "/ziEuG1essDuWuC5lpWUaw1uXY2O.jpg",
      "original_language": "en",
      "original_title": "John Wick: Chapter 3 – Parabellum",
      "genre_ids": [
        80,
        28,
        53
      ],
      "backdrop_path": "/vVpEOvdxVBP2aV166j5Xlvb5Cdc.jpg",
      "adult": false,
      "overview": "Super-assassin John Wick returns with a $14 million price tag on his head and an army of bounty-hunting killers on his trail. After killing a member of the shadowy international assassin’s guild, the High Table, John Wick is excommunicado, but the world’s most ruthless hit men and women await his every turn.",
      "release_date": "2019-05-15"
    },
    {
      "vote_count": 1986,
      "id": 420817,
      "video": false,
      "vote_average": 7.2,
      "title": "Aladdin",
      "popularity": 109.005,
      "poster_path": "/3iYQTLGoy7QnjcUYRJy4YrAgGvp.jpg",
      "original_language": "en",
      "original_title": "Aladdin",
      "genre_ids": [
        12,
        14,
        10749,
        35,
        10751
      ],
      "backdrop_path": "/v4yVTbbl8dE1UP2dWu5CLyaXOku.jpg",
      "adult": false,
      "overview": "A kindhearted street urchin named Aladdin embarks on a magical adventure after finding a lamp that releases a wisecracking genie while a power-hungry Grand Vizier vies for the same lamp that has the power to make their deepest wishes come true.",
      "release_date": "2019-05-22"
    },
    {
      "vote_count": 7360,
      "id": 299534,
      "video": false,
      "vote_average": 8.4,
      "title": "Avengers: Endgame",
      "popularity": 99.544,
      "poster_path": "/or06FN3Dka5tukK1e9sl16pB3iy.jpg",
      "original_language": "en",
      "original_title": "Avengers: Endgame",
      "genre_ids": [
        12,
        878,
        28
      ],
      "backdrop_path": "/7RyHsO4yDXtBv1zUU3mTpHeQ0d5.jpg",
      "adult": false,
      "overview": "After the devastating events of Avengers: Infinity War, the universe is in ruins due to the efforts of the Mad Titan, Thanos. With the help of remaining allies, the Avengers must assemble once more in order to undo Thanos' actions and restore order to the universe once and for all, no matter what consequences may be in store.",
      "release_date": "2019-04-24"
    },
    {
      "vote_count": 384,
      "id": 479455,
      "video": false,
      "vote_average": 6.1,
      "title": "Men in Black: International",
      "popularity": 71.908,
      "poster_path": "/dPrUPFcgLfNbmDL8V69vcrTyEfb.jpg",
      "original_language": "en",
      "original_title": "Men in Black: International",
      "genre_ids": [
        28,
        35,
        878,
        12
      ],
      "backdrop_path": "/2FYzxgLNuNVwncilzUeCGbOQzP7.jpg",
      "adult": false,
      "overview": "The Men in Black have always protected the Earth from the scum of the universe. In this new adventure, they tackle their biggest, most global threat to date: a mole in the Men in Black organization.",
      "release_date": "2019-06-12"
    },
    {
      "vote_count": 59,
      "id": 515195,
      "video": false,
      "vote_average": 6.5,
      "title": "Yesterday",
      "popularity": 67.653,
      "poster_path": "/9fYka5CQt9nrb6LOtKicysUf9NA.jpg",
      "original_language": "en",
      "original_title": "Yesterday",
      "genre_ids": [
        35,
        10402,
        10749
      ],
      "backdrop_path": "/qWMKhBN7IsiIEFqRJYRg0HmHH6r.jpg",
      "adult": false,
      "overview": "Jack Malik is a struggling singer-songwriter in an English seaside town whose dreams of fame are rapidly fading, despite the fierce devotion and support of his childhood best friend, Ellie. After a freak bus accident during a mysterious global blackout, Jack wakes up to discover that he's the only person on Earth who can remember The Beatles.",
      "release_date": "2019-06-27"
    },
    {
      "vote_count": 128,
      "id": 533642,
      "video": false,
      "vote_average": 5.9,
      "title": "Child's Play",
      "popularity": 60.625,
      "poster_path": "/rpS7ROczWulqfaXG2klYapULXKm.jpg",
      "original_language": "en",
      "original_title": "Child's Play",
      "genre_ids": [
        27
      ],
      "backdrop_path": "/vHse4QK31Vc3X7BKKU5GOQhYxv6.jpg",
      "adult": false,
      "overview": "Karen, a single mother, gifts her son Andy a Buddi doll for his birthday, unaware of its more sinister nature. A contemporary re-imagining of the 1988 horror classic.",
      "release_date": "2019-06-19"
    },
    {
      "vote_count": 707,
      "id": 373571,
      "video": false,
      "vote_average": 6.3,
      "title": "Godzilla: King of the Monsters",
      "popularity": 55.343,
      "poster_path": "/pU3bnutJU91u3b4IeRPQTOP8jhV.jpg",
      "original_language": "en",
      "original_title": "Godzilla: King of the Monsters",
      "genre_ids": [
        878,
        28
      ],
      "backdrop_path": "/uovH5k4BAEPqXqxgwVrTtqH169g.jpg",
      "adult": false,
      "overview": "The new story follows the heroic efforts of the crypto-zoological agency Monarch as its members face off against a battery of god-sized monsters, including the mighty Godzilla, who collides with Mothra, Rodan, and his ultimate nemesis, the three-headed King Ghidorah. When these ancient super-species—thought to be mere myths—rise again, they all vie for supremacy, leaving humanity’s very existence hanging in the balance.",
      "release_date": "2019-05-29"
    },
    {
      "vote_count": 871,
      "id": 514999,
      "video": false,
      "vote_average": 6.4,
      "title": "Murder Mystery",
      "popularity": 54.626,
      "poster_path": "/bSMSO9xupd4R4vwTPqigHn2quLN.jpg",
      "original_language": "en",
      "original_title": "Murder Mystery",
      "genre_ids": [
        35,
        80,
        9648,
        28
      ],
      "backdrop_path": "/qeFO3u2IqbAeIT1Xgo6POqYbCaQ.jpg",
      "adult": false,
      "overview": "After attending a gathering on a billionaire's yacht during a European vacation, a New York cop and his wife become prime suspects when he's murdered.",
      "release_date": "2019-06-14"
    },
    {
      "vote_count": 1527,
      "id": 447404,
      "video": false,
      "vote_average": 7,
      "title": "Pokémon Detective Pikachu",
      "popularity": 54.294,
      "poster_path": "/wgQ7APnFpf1TuviKHXeEe3KnsTV.jpg",
      "original_language": "en",
      "original_title": "Pokémon Detective Pikachu",
      "genre_ids": [
        9648,
        10751,
        35,
        878,
        28,
        12
      ],
      "backdrop_path": "/nDP33LmQwNsnPv29GQazz59HjJI.jpg",
      "adult": false,
      "overview": "In a world where people collect pocket-size monsters (Pokémon) to do battle, a boy comes across an intelligent monster who seeks to be a detective.",
      "release_date": "2019-05-03"
    },
    {
      "vote_count": 41,
      "id": 480042,
      "video": false,
      "vote_average": 4.8,
      "title": "Escape Plan: The Extractors",
      "popularity": 51.162,
      "poster_path": "/9V5fl1mGgVZzOYod0Jq2hyRlzEY.jpg",
      "original_language": "en",
      "original_title": "Escape Plan: The Extractors",
      "genre_ids": [
        28,
        53
      ],
      "backdrop_path": "/ygWKYTu7OnZKF9H5NsgjL9iURGV.jpg",
      "adult": false,
      "overview": "After security expert Ray Breslin is hired to rescue the kidnapped daughter of a Hong Kong tech mogul from a formidable Latvian prison, Breslin's girlfriend is also captured. Now he and his team must pull off a deadly rescue mission to confront their sadistic foe and save the hostages before time runs out.",
      "release_date": "2019-06-20"
    },
    {
      "vote_count": 95,
      "id": 526050,
      "video": false,
      "vote_average": 6.2,
      "title": "Little",
      "popularity": 46.558,
      "poster_path": "/4MDB6jJl3U7xK1Gw64zIqt9pQA4.jpg",
      "original_language": "en",
      "original_title": "Little",
      "genre_ids": [
        35,
        14,
        10749
      ],
      "backdrop_path": "/tmM78qRhpg0i2Cky8Q8hXKASOXY.jpg",
      "adult": false,
      "overview": "A woman receives the chance to relive the life of her younger self, at a point in her life when the pressures of adulthood become too much for her to bear.",
      "release_date": "2019-04-04"
    },
    {
      "vote_count": 317,
      "id": 531309,
      "video": false,
      "vote_average": 5.6,
      "title": "Brightburn",
      "popularity": 45.088,
      "poster_path": "/sJWwkYc9ajwnPRSkqj8Aue5JbKz.jpg",
      "original_language": "en",
      "original_title": "Brightburn",
      "genre_ids": [
        27,
        878,
        18,
        53
      ],
      "backdrop_path": "/j3w3lT3ABvJsVE3byNOMCYmnGMB.jpg",
      "adult": false,
      "overview": "What if a child from another world crash-landed on Earth, but instead of becoming a hero to mankind, he proved to be something far more sinister?",
      "release_date": "2019-05-09"
    },
    {
      "vote_count": 113,
      "id": 467956,
      "video": false,
      "vote_average": 6.9,
      "title": "The Professor",
      "popularity": 45.01,
      "poster_path": "/cypBSinhGuQaZ7VuOmGtcKMp91G.jpg",
      "original_language": "en",
      "original_title": "The Professor",
      "genre_ids": [
        35,
        18
      ],
      "backdrop_path": "/dnFwUWT36xseF7LwT2PLkX7mbi0.jpg",
      "adult": false,
      "overview": "Richard, a world-weary college professor is given a life-changing diagnosis and decides to throw all pretense and conventions to the wind and live his life as boldly and freely as possible with a biting sense of humor, a reckless streak, and a touch of madness.",
      "release_date": "2019-02-14"
    },
    {
      "vote_count": 197,
      "id": 412117,
      "video": false,
      "vote_average": 6.4,
      "title": "The Secret Life of Pets 2",
      "popularity": 42.532,
      "poster_path": "/q3mKnSkzp1doIsCye6ap4KIUAbu.jpg",
      "original_language": "en",
      "original_title": "The Secret Life of Pets 2",
      "genre_ids": [
        12,
        16,
        35,
        10751
      ],
      "backdrop_path": "/kTQQjh53k2twvLDwLH8c0m4w6HR.jpg",
      "adult": false,
      "overview": "What happens with our pets when we’re not home? This movie continues the original movie with Max and his friends.",
      "release_date": "2019-05-24"
    },
    {
      "vote_count": 511,
      "id": 456740,
      "video": false,
      "vote_average": 5,
      "title": "Hellboy",
      "popularity": 41.591,
      "poster_path": "/bk8LyaMqUtaQ9hUShuvFznQYQKR.jpg",
      "original_language": "en",
      "original_title": "Hellboy",
      "genre_ids": [
        28,
        12,
        14,
        27,
        878
      ],
      "backdrop_path": "/hMbP23EkGk6tjEjRZQXhnVAl5fW.jpg",
      "adult": false,
      "overview": "Hellboy comes to England, where he must defeat Nimue, Merlin's consort and the Blood Queen. But their battle will bring about the end of the world, a fate he desperately tries to turn away.",
      "release_date": "2019-04-10"
    }
  ],
  "page": 1,
  "total_results": 991,
  "dates": {
    "maximum": "2019-07-01",
    "minimum": "2019-05-14"
  },
  "total_pages": 50
}
